0	 0.355028	 0.614927
-10	 0.0402412	 -0.31468
-9.9	 0.136235	 -0.287384
-9.8	 0.218867	 -0.231863
-9.7	 0.280238	 -0.153794
-9.6	 0.314652	 -0.0609129
-9.5	 0.319103	 0.0377854
-9.4	 0.293478	 0.132939
-9.3	 0.240474	 0.215708
-9.2	 0.165268	 0.278584
-9.1	 0.0749599	 0.316035
-9	 -0.0221337	 0.324947
-8.9	 -0.117266	 0.304832
-8.8	 -0.202054	 0.257782
-8.7	 -0.269205	 0.188204
-8.6	 -0.313112	 0.102356
-8.5	 -0.33029	 0.00775444
-8.4	 -0.319592	 -0.087518
-8.3	 -0.282232	 -0.175506
-8.2	 -0.221599	 -0.24904
-8.1	 -0.142908	 -0.302303
-8	 -0.0527051	 -0.331252
-7.9	 0.0417019	 -0.333879
-7.8	 0.132852	 -0.310301
-7.7	 0.21372	 -0.26267
-7.6	 0.27825	 -0.194934
-7.5	 0.321776	 -0.112463
-7.4	 0.341324	 -0.0215965
-7.3	 0.33577	 0.0708741
-7.2	 0.305852	 0.158217
-7.1	 0.254036	 0.234251
-7	 0.184281	 0.293762
-6.9	 0.101688	 0.332838
-6.8	 0.0121045	 0.349084
-6.7	 -0.0783125	 0.341728
-6.6	 -0.163526	 0.3116
-6.5	 -0.23802	 0.261013
-6.4	 -0.297138	 0.193541
-6.3	 -0.337348	 0.113737
-6.2	 -0.356421	 0.0267908
-6.1	 -0.353512	 -0.0618225
-6	 -0.329145	 -0.146698
-5.9	 -0.285123	 -0.22283
-5.8	 -0.224352	 -0.28589
-5.7	 -0.15062	 -0.332458
-5.6	 -0.0683307	 -0.360172
-5.5	 0.0177815	 -0.367813
-5.4	 0.102935	 -0.355317
-5.3	 0.182568	 -0.323716
-5.2	 0.25258	 -0.275027
-5.1	 0.309526	 -0.212089
-5	 0.350761	 -0.138369
-4.9	 0.374536	 -0.0577466
-4.8	 0.380037	 0.0257078
-4.7	 0.367367	 0.107947
-4.6	 0.337496	 0.185146
-4.5	 0.292153	 0.253873
-4.4	 0.233703	 0.311229
-4.3	 0.164998	 0.354949
-4.2	 0.0892108	 0.383467
-4.1	 0.00967698	 0.39594
-4	 -0.0702655	 0.392235
-3.9	 -0.14742	 0.372891
-3.8	 -0.218856	 0.339046
-3.7	 -0.282013	 0.292353
-3.6	 -0.334777	 0.234866
-3.5	 -0.375534	 0.16894
-3.4	 -0.40319	 0.0971062
-3.3	 -0.417181	 0.021968
-3.2	 -0.417443	 -0.0539058
-3.1	 -0.404382	 -0.128072
-3	 -0.378814	 -0.19829
-2.9	 -0.341905	 -0.262585
-2.8	 -0.295098	 -0.319294
-2.7	 -0.240038	 -0.367092
-2.6	 -0.178502	 -0.405008
-2.5	 -0.112325	 -0.432422
-2.4	 -0.0433341	 -0.449052
-2.3	 0.0267063	 -0.454928
-2.2	 0.0961454	 -0.450361
-2.1	 0.163485	 -0.435902
-2	 0.227407	 -0.412303
-1.9	 0.2868	 -0.380466
-1.8	 0.340762	 -0.341406
-1.7	 0.388607	 -0.296203
-1.6	 0.429863	 -0.245963
-1.5	 0.464257	 -0.191785
-1.4	 0.4917	 -0.134724
-1.3	 0.512272	 -0.0757696
-1.2	 0.526194	 -0.0158214
-1.1	 0.533811	 0.0443266
-1	 0.535561	 0.103997
-0.9	 0.53196	 0.162639
-0.8	 0.523574	 0.219828
-0.7	 0.511	 0.275268
-0.6	 0.49485	 0.328792
-0.5	 0.475728	 0.380353
-0.4	 0.454226	 0.430021
-0.3	 0.430903	 0.477978
-0.2	 0.406284	 0.524509
-0.1	 0.380849	 0.569999
0	 0.355028	 0.614927
0.1	 0.329203	 0.659862
0.2	 0.303703	 0.705464
0.3	 0.278806	 0.752486
0.4	 0.254742	 0.801773
0.5	 0.231694	 0.854277
0.6	 0.2098	 0.911063
0.7	 0.189162	 0.973329
0.8	 0.169846	 1.04242
0.9	 0.151887	 1.11987
1	 0.135292	 1.20742
1.1	 0.120049	 1.30707
1.2	 0.106126	 1.42113
1.3	 0.0934747	 1.55228
1.4	 0.082038	 1.70366
1.5	 0.0717495	 1.87894
1.6	 0.0625369	 2.08247
1.7	 0.0543248	 2.31941
1.8	 0.0470362	 2.59587
1.9	 0.0405944	 2.91918
2	 0.0349241	 3.29809
