\relax 
\@writefile{lof}{\contentsline {figure}{\numberline {1}{\ignorespaces On the figure the arctan-function is plotted. The red line is $\text  {arctan}(x)$ from \textit  {math.h} and the black points are from the written root-finding program.}}{2}}
\newlabel{plot}{{1}{2}}
